My Data Analysis Portfolio – modeleval
…
Computational engine: glm 

#make function to prepare the recipe and train the model 
flu_fit <- 
  flu_wflow %>% 
  fit(data = train_data)

#pull fitting model object and make tibble of model coefficients
flu_fit %>% 
  extract_fit_parsnip() %>% 
  tidy()

# A tibble: 38 × 5
   term                 estimate std.error statistic p.value
   <chr>                   <dbl>     <dbl>     <dbl>   <dbl>
 1 (Intercept)             1.63      9.40      0.173  0.862 
 2 SwollenLymphNodesYes   -0.241     0.232    -1.04   0.298 
 3 ChestCongestionYes      0.219     0.257     0.853  0.394 
 4 ChillsSweatsYes         0.115     0.332     0.346  0.729 
 5 NasalCongestionYes      0.560     0.311     1.80   0.0713
 6 CoughYNYes             -0.705     0.611    -1.15   0.249 
 7 SneezeYes               0.117     0.248     0.473  0.636 
 8 FatigueYes              0.177     0.438     0.403  0.687 
 9 SubjectiveFeverYes      0.229     0.264     0.868  0.385 
10 HeadacheYes             0.435     0.352     1.24   0.216 
# … with 28 more rows

Using trained workflow to predict (test data)

#use trained model to predict with unseen data
predict(flu_fit, test_data)

Warning in predict.lm(object, newdata, se.fit, scale = 1, type = if (type == :
prediction from a rank-deficient fit may be misleading

# A tibble: 183 × 1
   .pred_class
   <fct>      
 1 No         
 2 No         
 3 No         
 4 No         
 5 No         
 6 Yes        
 7 Yes        
 8 No         
 9 No         
10 Yes        
# … with 173 more rows
#save above together to use to get ROC
flu_aug <- 
  augment(flu_fit, test_data)

Warning in predict.lm(object, newdata, se.fit, scale = 1, type = if (type == :
prediction from a rank-deficient fit may be misleading

Warning in predict.lm(object, newdata, se.fit, scale = 1, type = if (type == :
prediction from a rank-deficient fit may be misleading

#view the data
flu_aug %>%
  select(Nausea, .pred_No, .pred_Yes)

# A tibble: 183 × 3
   Nausea .pred_No .pred_Yes
   <fct>     <dbl>     <dbl>
 1 No        0.962    0.0377
 2 Yes       0.717    0.283 
 3 No        0.680    0.320 
 4 Yes       0.558    0.442 
 5 No        0.830    0.170 
 6 Yes       0.188    0.812 
 7 Yes       0.254    0.746 
 8 No        0.725    0.275 
 9 No        0.720    0.280 
10 Yes       0.281    0.719 
# … with 173 more rows
…
flu_fit2 %>% 
  extract_fit_parsnip() %>% 
  tidy()

# A tibble: 2 × 5
  term         estimate std.error statistic    p.value
  <chr>           <dbl>     <dbl>     <dbl>      <dbl>
1 (Intercept)    -0.790     0.172    -4.59  0.00000447
2 RunnyNoseYes    0.188     0.202     0.930 0.352     

Using trained workflow to predict (test data)

predict(flu_fit2, test_data)

# A tibble: 183 × 1
   .pred_class
   <fct>      
 1 No         
 2 No         
 3 No         
 4 No         
 5 No         
 6 No         
 7 No         
 8 No         
 9 No         
10 No         
# … with 173 more rows

flu_aug3 <- 
  augment(flu_fit2, test_data)

flu_aug3 %>%
  select(Nausea, .pred_No, .pred_Yes)

# A tibble: 183 × 3
   Nausea .pred_No .pred_Yes
   <fct>     <dbl>     <dbl>
 1 No        0.688     0.312
 2 Yes       0.646     0.354
 3 No        0.646     0.354
 4 Yes       0.646     0.354
 5 No        0.688     0.312
 6 Yes       0.688     0.312
 7 Yes       0.646     0.354
 8 No        0.688     0.312
 9 No        0.688     0.312
10 Yes       0.688     0.312
# … with 173 more rows
…
#make function to prepare the recipe and train the model 
flu_ln_fit <- 
  flu_ln_wflow %>% 
  fit(data = train_data)

#pull fitting model object and make tibble of model coefficients
flu_ln_fit %>% 
  extract_fit_parsnip() %>% 
  tidy()

# A tibble: 38 × 5
   term                 estimate std.error statistic    p.value
   <chr>                   <dbl>     <dbl>     <dbl>      <dbl>
 1 (Intercept)           97.7        0.345   284.    0         
 2 SwollenLymphNodesYes  -0.191      0.108    -1.77  0.0779    
 3 ChestCongestionYes     0.128      0.116     1.10  0.272     
 4 ChillsSweatsYes        0.196      0.148     1.32  0.188     
 5 NasalCongestionYes    -0.163      0.137    -1.19  0.233     
 6 CoughYNYes             0.380      0.289     1.31  0.189     
 7 SneezeYes             -0.471      0.114    -4.13  0.0000425 
 8 FatigueYes             0.354      0.187     1.89  0.0592    
 9 SubjectiveFeverYes     0.558      0.119     4.70  0.00000338
10 HeadacheYes            0.0838     0.151     0.554 0.580     
# … with 28 more rows

Using trained workflow to predict (test data)

#use trained model to predict with unseen data
predict(flu_ln_fit, test_data)

Warning in predict.lm(object = object$fit, newdata = new_data, type =
"response"): prediction from a rank-deficient fit may be misleading

# A tibble: 183 × 1
   .pred
   <dbl>
 1  99.3
 2  99.0
 3  99.7
 4  98.7
 5  99.0
 6  99.5
 7  99.3
 8  98.9
 9  99.6
10  98.8
# … with 173 more rows

#save above together 
flu_ln_aug <- 
  augment(flu_ln_fit, test_data)

Warning in predict.lm(object = object$fit, newdata = new_data, type =
"response"): prediction from a rank-deficient fit may be misleading

#view the data
flu_ln_aug %>%
  select(BodyTemp, .pred)

# A tibble: 183 × 2
   BodyTemp .pred
      <dbl> <dbl>
 1     98.3  99.3
 2     98.8  99.0
 3    102.   99.7
 4     98.2  98.7
 5     97.8  99.0
 6     97.8  99.5
 7    100    99.3
 8    101.   98.9
 9     98.8  99.6
10    100.   98.8
# … with 173 more rows
…
flu_ln_fit2 %>% 
  extract_fit_parsnip() %>% 
  tidy()

# A tibble: 2 × 5
  term         estimate std.error statistic p.value
  <chr>           <dbl>     <dbl>     <dbl>   <dbl>
1 (Intercept)    99.1      0.0964   1028.    0     
2 RunnyNoseYes   -0.261    0.114      -2.29  0.0225

Using trained workflow to predict (test data)

predict(flu_ln_fit2, test_data)

# A tibble: 183 × 1
   .pred
   <dbl>
 1  99.1
 2  98.9
 3  98.9
 4  98.9
 5  99.1
 6  99.1
 7  98.9
 8  99.1
 9  99.1
10  99.1
# … with 173 more rows

flu_ln_aug3 <- 
  augment(flu_ln_fit2, test_data)

flu_ln_aug3 %>%
  select(BodyTemp, .pred)

# A tibble: 183 × 2
   BodyTemp .pred
      <dbl> <dbl>
 1     98.3  99.1
 2     98.8  98.9
 3    102.   98.9
 4     98.2  98.9
 5     97.8  99.1
 6     97.8  99.1
 7    100    98.9
 8    101.   99.1
 9     98.8  99.1
10    100.   99.1
# … with 173 more rows
…
