My Data Analysis Portfolio - Tidy Tuesday Exercise 2
…
Workflow Definition

tree_wf <- workflow() %>%
  add_model(tune_spec) %>%
  add_recipe(egg_rec)

Tuning Grid Specification

tree_grid <- grid_regular(cost_complexity(),
                          tree_depth(),
                          levels = 5)
tree_grid

# A tibble: 25 × 2
   cost_complexity tree_depth
             <dbl>      <int>
 1    0.0000000001          1
 2    0.0000000178          1
 3    0.00000316            1
 4    0.000562              1
 5    0.1                   1
 6    0.0000000001          4
 7    0.0000000178          4
 8    0.00000316            4
 9    0.000562              4
10    0.1                   4
# … with 15 more rows
…
# Tuning results
# 2-fold cross-validation repeated 2 times using stratification 
# A tibble: 4 × 5
  splits          id      id2   .metrics          .notes          
  <list>          <chr>   <chr> <list>            <list>          
1 <split [76/76]> Repeat1 Fold1 <tibble [50 × 6]> <tibble [0 × 3]>
2 <split [76/76]> Repeat1 Fold2 <tibble [50 × 6]> <tibble [0 × 3]>
3 <split [76/76]> Repeat2 Fold1 <tibble [50 × 6]> <tibble [0 × 3]>
4 <split [76/76]> Repeat2 Fold2 <tibble [50 × 6]> <tibble [0 × 3]>

tree_res %>%
  collect_metrics()

# A tibble: 50 × 8
   cost_complexity tree_depth .metric .estimator      mean     n std_err .config
             <dbl>      <int> <chr>   <chr>          <dbl> <int>   <dbl> <chr>  
 1    0.0000000001          1 rmse    standard     3.99e+8     4 5.31e+6 Prepro…
 2    0.0000000001          1 rsq     standard     9.83e-1     4 4.86e-4 Prepro…
 3    0.0000000178          1 rmse    standard     3.99e+8     4 5.31e+6 Prepro…
 4    0.0000000178          1 rsq     standard     9.83e-1     4 4.86e-4 Prepro…
 5    0.00000316            1 rmse    standard     3.99e+8     4 5.31e+6 Prepro…
 6    0.00000316            1 rsq     standard     9.83e-1     4 4.86e-4 Prepro…
 7    0.000562              1 rmse    standard     3.99e+8     4 5.31e+6 Prepro…
 8    0.000562              1 rsq     standard     9.83e-1     4 4.86e-4 Prepro…
 9    0.1                   1 rmse    standard     3.99e+8     4 5.31e+6 Prepro…
10    0.1                   1 rsq     standard     9.83e-1     4 4.86e-4 Prepro…
# … with 40 more rows
…
Tuning using cross-validation and the tune_grid() function

lr_res <- lr_workflow %>%
  tune_grid(resamples = folds_train,
            grid = lr_reg_grid,
            control = control_grid(save_pred = TRUE))

lr_res %>% collect_metrics()

# A tibble: 60 × 7
    penalty .metric .estimator          mean     n std_err .config              
      <dbl> <chr>   <chr>              <dbl> <int>   <dbl> <chr>                
 1 0.0001   rmse    standard   131030574.        4 1.86e+7 Preprocessor1_Model01
 2 0.0001   rsq     standard           0.998     4 5.63e-4 Preprocessor1_Model01
 3 0.000127 rmse    standard   131030574.        4 1.86e+7 Preprocessor1_Model02
 4 0.000127 rsq     standard           0.998     4 5.63e-4 Preprocessor1_Model02
 5 0.000161 rmse    standard   131030574.        4 1.86e+7 Preprocessor1_Model03
 6 0.000161 rsq     standard           0.998     4 5.63e-4 Preprocessor1_Model03
 7 0.000204 rmse    standard   131030574.        4 1.86e+7 Preprocessor1_Model04
 8 0.000204 rsq     standard           0.998     4 5.63e-4 Preprocessor1_Model04
 9 0.000259 rmse    standard   131030574.        4 1.86e+7 Preprocessor1_Model05
10 0.000259 rsq     standard           0.998     4 5.63e-4 Preprocessor1_Model05
# … with 50 more rows
…
Tuning Using Cross-Validation and the Tune_Grid()

rf_res <- rf_workflow %>%
  tune_grid(resamples = folds_train,
            grid = 25,
            control = control_grid(save_pred = TRUE),
            metrics = metric_set(rmse))

i Creating pre-processing data to finalize unknown parameter: mtry

rf_res %>%
  collect_metrics()

# A tibble: 24 × 8
    mtry min_n .metric .estimator       mean     n   std_err .config            
   <int> <int> <chr>   <chr>           <dbl> <int>     <dbl> <chr>              
 1     2    13 rmse    standard   203296284.     4 10543991. Preprocessor1_Mode…
 2     3    16 rmse    standard   165318392.     4 14750850. Preprocessor1_Mode…
 3     2    20 rmse    standard   217891285.     4 11380560. Preprocessor1_Mode…
 4     3    24 rmse    standard   186830374.     4 17720005. Preprocessor1_Mode…
 5     2    21 rmse    standard   224940226.     4 13278662. Preprocessor1_Mode…
 6     4    32 rmse    standard   198864236.     4 17161204. Preprocessor1_Mode…
 7     1    10 rmse    standard   916840048.     4 15677837. Preprocessor1_Mode…
 8     3    25 rmse    standard   188501787.     4 17593030. Preprocessor1_Mode…
 9     4     8 rmse    standard   159937699.     4  6100597. Preprocessor1_Mode…
10     3     3 rmse    standard   159722188.     4 10974054. Preprocessor1_Mode…
# … with 14 more rows
…
pois_res <- p_workflow %>%
  tune_grid(resamples = folds_train,
            grid = pois_reg_grid,
            control = control_grid(verbose = FALSE, save_pred = TRUE),
            metrics = metric_set(rmse))
pois_res %>%
  collect_metrics()

# A tibble: 30 × 7
    penalty .metric .estimator       mean     n   std_err .config              
      <dbl> <chr>   <chr>           <dbl> <int>     <dbl> <chr>                
 1 0.0001   rmse    standard   131030574.     4 18627216. Preprocessor1_Model01
 2 0.000127 rmse    standard   131030574.     4 18627216. Preprocessor1_Model02
 3 0.000161 rmse    standard   131030574.     4 18627216. Preprocessor1_Model03
 4 0.000204 rmse    standard   131030574.     4 18627216. Preprocessor1_Model04
 5 0.000259 rmse    standard   131030574.     4 18627216. Preprocessor1_Model05
 6 0.000329 rmse    standard   131030574.     4 18627216. Preprocessor1_Model06
 7 0.000418 rmse    standard   131030574.     4 18627216. Preprocessor1_Model07
 8 0.000530 rmse    standard   131030574.     4 18627216. Preprocessor1_Model08
 9 0.000672 rmse    standard   131030574.     4 18627216. Preprocessor1_Model09
10 0.000853 rmse    standard   131030574.     4 18627216. Preprocessor1_Model10
# … with 20 more rows
…
